<?xml version="1.0" encoding="utf-8"?>
<svg xmlns="http://www.w3.org/2000/svg" height="256" width="256" viewBox="0 0 256 256">
  <g>
    <path id="path1" transform="rotate(0,128,128) translate(1.59999999999999,1.59999999999999) scale(7.9,7.9)  " fill="#004377" d="M26,26.000001L26,29.999986 29.000003,29.999986 29.000003,26.000001z M21,26.000001L21,29.999986 25,29.999986 25,26.000001z M16,26.000001L16,29.999986 20,29.999986 20,26.000001z M12.000003,26.000001L12.000003,29.999986 15,29.999986 15,26.000001z M21,22.000001L21,25.000001 29.000003,25.000001 29.000003,22.000001z M12.000003,22.000001L12.000003,25.000001 20,25.000001 20,22.000001z M21,18L21,21.000001 29.000003,21.000001 29.000003,18z M12.000003,18L12.000003,21.000001 20,21.000001 20,18z M21,14L21,17 29.000003,17 29.000003,14z M12.000003,14L12.000003,17 20,17 20,14z M21,10L21,13 29.000003,13 29.000003,10z M12.000003,10L12.000003,13 20,13 20,10z M21,5.9999853L21,9.0000005 29.000003,9.0000005 29.000003,5.9999853z M12.000003,5.9999853L12.000003,9.0000005 20,9.0000005 20,5.9999853z M3,2L3,30.000001 10,30.000001 10,2z M2,0L11,0C11.552,2.3841858E-07,12,0.44700027,12,1L12,3.9999858 30.000003,3.9999858C30.551997,3.9999857,31.000003,4.4470072,31.000003,4.9999858L31.000003,30.000001 32.000001,30.000001 32.000001,32.000001 11,32.000001 2,32.000001 0,32.000001 0,30.000001 1,30.000001 1,1C1,0.44700027,1.4470005,2.3841858E-07,2,0z" />
  </g>
</svg>

