<svg width="64" height="64" enable-background="new 0 0 64 64" version="1.1" viewBox="0 0 64 64" xmlns="http://www.w3.org/2000/svg">
 <path d="m59 32.012-26.999 26.999-26.999-26.999 26.999-26.999z" fill="#76a797"/>
</svg>
