<svg width="64" xmlns="http://www.w3.org/2000/svg" height="64" viewBox="0 0 64 64" xmlns:xlink="http://www.w3.org/1999/xlink" enable-background="new 0 0 64 64">
<g fill="#0072c6" transform="translate(0 -924.36218)">
<path d="m52,983.362h-40l20-26 20,26z"/>
<path d="m52,929.362h-40l20,26 20-26z"/>
</g>
</svg>
