<?xml version="1.0" encoding="utf-8"?>
<!-- Generator: Adobe Illustrator 16.0.0, SVG Export Plug-In . SVG Version: 6.00 Build 0)  -->
<!DOCTYPE svg PUBLIC "-//W3C//DTD SVG 1.1//EN" "http://www.w3.org/Graphics/SVG/1.1/DTD/svg11.dtd">
<svg version="1.1" id="Layer_1" xmlns="http://www.w3.org/2000/svg" xmlns:xlink="http://www.w3.org/1999/xlink" x="0px" y="0px"
	 width="64px" height="64px" viewBox="0 0 64 64" enable-background="new 0 0 64 64" xml:space="preserve">
<g>
	<path fill="#A0A0A0" d="M30.218,19.512l24.607,0.004v24.977l-24.607,0.006V19.512 M26.218,15.512v32.986l32.607-0.008V15.516
		L26.218,15.512L26.218,15.512z"/>
	<path fill="#5D5D5D" d="M11.692,48.74v-2.961h7.237l0.004-4.539h-3.241v-0.01v-2.951v-0.01h3.244l0.004-4.498h-7.248v-2.961h7.251
		l0.003-4.539h-3.254v-2.961h3.257l0.004-4.539h-7.261v-2.961h7.263l0.006-5.801L5.181,10L5.175,54l13.713-0.002l0.007-5.289
		L11.692,48.74z"/>
</g>
</svg>
