<svg width="64" xmlns="http://www.w3.org/2000/svg" height="64" viewBox="0 0 64 64" xmlns:xlink="http://www.w3.org/1999/xlink">
<path fill="none" stroke="#505050" stroke-width="2" d="m11,49 0-43 27,0" stroke-miterlimit="10"/>
<path fill="#fff" d="m15.818,53.186v-42.371h22.571l11.795,11.745v3.452 27.173h-34.366l0,.001z"/>
<g fill="#d86344">
<path d="M37.909,11.63l11.454,11.407V52.37H16.637V11.63H37.909 M38.729,10H15v44h36V22.222L38.729,10z"/>
<path d="M39.546,13.259l8.183,8.148h-8.183V13.259 M38.729,10H37.91v13.037H51v-0.815L38.729,10z"/>
<g transform="matrix(0 -.81121 .81121 0 -766.24791 974.53807)">
<path d="m1172.992,977.863l9.862-7.396v14.793l-9.862-7.397z"/>
<path stroke="#d86344" stroke-width="6" d="m1180.388,977.863h14.793"/>
</g>
</g>
<path fill="#fff" d="m23,28h31v31h-31z"/>
<g transform="matrix(1.34997 0 0 1.34997 -15.25204 -363.50621)">
<path fill="#b3b3b3" d="m38.706,290.751h2.963v5.185h-2.963z"/>
<path fill="#727272" d="m38.706,307.788h2.963v5.185h-2.963z"/>
<path fill="#b3b3b3" d="m43.803,294.05h5.373v3.007h-5.373z" transform="matrix(-.7071 .7071 -.7071 -.7071 288.3591 471.6566)"/>
<path fill="#505050" d="m31.201,306.653h5.374v3.006h-5.374z" transform="matrix(-.7071 .7071 -.7071 -.7071 275.7505 502.0933)"/>
<path fill="#b3b3b3" d="m46.114,300.381h5.185v2.963h-5.185z"/>
<path fill="#505050" d="m29.076,300.381h5.185v2.963h-5.185z"/>
<path fill="#727272" d="m43.799,306.652h5.374v3.007h-5.374z" transform="matrix(-.7071 -.7071 .7071 -.7071 -138.5423 558.9253)"/>
<path fill="#505050" d="m31.206,294.061h5.375v3.006h-5.375z" transform="matrix(-.7071 -.7071 .7071 -.7071 -151.136 528.5247)"/>
</g>
</svg>
