<?xml version="1.0" encoding="utf-8"?>
<!-- Generator: Adobe Illustrator 15.0.0, SVG Export Plug-In . SVG Version: 6.00 Build 0)  -->
<!DOCTYPE svg PUBLIC "-//W3C//DTD SVG 1.1//EN" "http://www.w3.org/Graphics/SVG/1.1/DTD/svg11.dtd">
<svg version="1.1" id="Слой_1" xmlns="http://www.w3.org/2000/svg" xmlns:xlink="http://www.w3.org/1999/xlink" x="0px" y="0px"
	 width="64px" height="64px" viewBox="0 0 64 64" enable-background="new 0 0 64 64" xml:space="preserve">
<path fill="#FFFFFF" d="M11,58V6h27.586L53,20.414V58H11z"/>
<g>
	<path fill="#515151" d="M38,7l14,14v36H12V7H38 M39,5H10v54h44V20L39,5z"/>
	<path fill="#515151" d="M40,9l10,10H40V9 M39,5h-1v16h16v-1L39,5z"/>
</g>
<path fill="#1F6D42" d="M10,26h44v18H10V26z"/>
<g>
	<path fill="#FFFFFF" d="M26.104,40.5c-0.468,0.225-1.578,0.5-2.982,0.5C19.081,41,17,38.479,17,35.164
		C17,31.193,19.844,29,23.381,29c1.37,0,2.41,0.259,2.878,0.518l-0.555,2.072c-0.52-0.224-1.266-0.432-2.22-0.432
		c-2.081,0-3.711,1.261-3.711,3.85c0,2.331,1.387,3.799,3.729,3.799c0.815,0,1.682-0.156,2.22-0.381L26.104,40.5z"/>
	<path fill="#FFFFFF" d="M27.942,38.1c0.693,0.363,1.803,0.725,2.931,0.725c1.214,0,1.855-0.5,1.855-1.26
		c0-0.725-0.555-1.139-1.96-1.623c-1.942-0.69-3.225-1.762-3.225-3.454c0-1.985,1.682-3.487,4.422-3.487
		c1.334,0,2.29,0.259,2.983,0.587l-0.59,2.106c-0.45-0.224-1.302-0.552-2.428-0.552c-1.145,0-1.699,0.535-1.699,1.122
		c0,0.741,0.642,1.071,2.167,1.641c2.063,0.76,3.018,1.831,3.018,3.47c0,1.952-1.491,3.608-4.699,3.608
		c-1.335,0-2.653-0.361-3.312-0.725L27.942,38.1z"/>
	<path fill="#FFFFFF" d="M39.977,40.81L36.23,29.173h2.897l1.422,4.922c0.398,1.398,0.762,2.71,1.04,4.16h0.053
		c0.295-1.399,0.658-2.779,1.057-4.109l1.491-4.973H47L43.063,40.81H39.977z"/>
</g>
</svg>
