﻿<svg width="64" xmlns="http://www.w3.org/2000/svg" height="64" viewBox="0 0 64 64" xmlns:xlink="http://www.w3.org/1999/xlink" enable-background="new 0 0 64 64">
<g fill="#19478a">
<path d="M38,22v16H5V10h13v6h-7v16h21V22H38z"/>
<path d="M22,26V10h37v28H42v-6h11V16H28v10H22z"/>
</g>
<path fill="#b83d19" d="m23.575,35.713h34.842v8.571h-34.842z" transform="matrix(-.7072 .707 -.707 -.7072 98.2684 39.2998)"/>
<path fill="#fff" d="m50.286,26.065l4.646,4.647-23.227,23.217-4.645-4.644 23.226-23.22m0-2.828l-1.414,1.414-23.226,23.22-1.415,1.414 1.415,1.414 4.645,4.644 1.413,1.414 1.414-1.413 23.229-23.217 1.415-1.414-1.415-1.415-4.647-4.647-1.414-1.414z"/>
<path fill="#b83d19" d="m36.7,22.501h8.6v35h-8.6z" transform="matrix(-.7067 .7075 -.7075 -.7067 98.2763 39.2655)"/>
<path fill="#fff" d="m31.665,26l23.335,23.333-4.668,4.667-23.332-23.331 4.665-4.669m-.001-2.829l-1.414,1.416-4.665,4.669-1.413,1.414 1.414,1.414 23.332,23.331 1.414,1.414 1.414-1.414 4.668-4.667 1.415-1.414-1.415-1.414-23.335-23.334-1.415-1.415z"/>
<path fill="#b83d19" d="m37.712,23.576h6.568v32.842h-6.568z" transform="matrix(.7072 .707 -.707 .7072 40.2833 -17.2734)"/>
</svg>
