<svg width="64" xmlns="http://www.w3.org/2000/svg" height="64" viewBox="0 0 64 64" xmlns:xlink="http://www.w3.org/1999/xlink" enable-background="new 0 0 64 64">
<path fill="#8959ab" d="m21.289,42.716l-.014-.216c-.02-.285-.044-.64-.044-1.033 0-1.505 .177-2.979 .499-4.406-.143-.427-.268-.861-.362-1.308-.002-.012-.006-.022-.008-.033-.072-.345-.123-.695-.165-1.05-.006-.053-.019-.104-.024-.157-.042-.406-.065-.818-.065-1.236-.009-6.629 5.355-12.009 11.982-12.018 .379-.001 .753,.02 1.123,.055 .233,.021 .461,.06 .69,.095 .119,.018 .238,.031 .356,.053 .3,.055 .594,.125 .885,.201 .032,.009 .065,.016 .097,.024 .204,.056 .407,.11 .606,.176 1.496-.35 3.012-.541 4.531-.541 .048,0 .095,.001 .143,.002 1.468,.012 2.966,.193 4.451,.542 1.371,.32 2.689,.787 3.953,1.382l5.646-5.678-6.69-6.707-5.529,5.707c-1.646-.99-2.869-1.639-4.869-2.11v-8.074h-10v8.074c-2,.473-3.668,1.094-5.312,2.086l-5.766-5.673-6.751,6.703 5.641,5.728c-.996,1.656-1.609,3.082-2.088,5.082h-7.725v10h7.725c.481,2 1.075,3.52 2.08,5.174l-5.563,5.531 6.699,6.683 5.768-5.588c.013,.008 .025,.013 .037,.021-.15-.313-.296-.627-.43-.948-.858-2.044-1.364-4.244-1.507-6.543z"/>
<path fill="#0153b7" d="m57.22,38.385c-.059-.302-.124-.601-.199-.896-.227-.891-.526-1.752-.895-2.577-1.15-2.579-2.959-4.796-5.212-6.447-1.725-1.265-3.705-2.201-5.855-2.704-.955-.224-1.939-.364-2.948-.413-.225-.011-.449-.022-.677-.023-.02,0-.038-.002-.058-.002-1.873,0-3.664,.336-5.338,.921-6.29,2.207-10.808,8.181-10.808,15.225 0,.294 .024,.582 .044,.871 .003,.044 .004,.089 .007,.133 .114,1.845 .52,3.611 1.202,5.237 1.9,4.534 5.815,8.005 10.621,9.321 .45,.123 .91,.222 1.375,.308 .94,.174 1.906,.275 2.896,.275 2.73,0 5.29-.694 7.542-1.894 .004-.003 .009-.005 .013-.008 1.069-.57 2.074-1.244 2.984-2.029 .529-.457 1.024-.95 1.49-1.471 1.998-2.235 3.377-5.026 3.885-8.118 .14-.857 .231-1.729 .231-2.626 .002-1.056-.104-2.085-.3-3.083z"/>
<path fill="#fff" d="m52.101,38.559l-7.309-1.02-.142-.294-3.086-6.342-3.229,6.636-7.308,1.02 5.312,5.121-.273,1.539-1.015,5.729 6.513-3.471 6.513,3.471-1.288-7.268 5.312-5.121z"/>
</svg>
