<svg width="64" xmlns="http://www.w3.org/2000/svg" height="64" viewBox="0 0 64 64" xmlns:xlink="http://www.w3.org/1999/xlink" enable-background="new 0 0 64 64">
<path fill="none" stroke="#505150" stroke-width="2" d="m24,58-13,0 0-52 42,0 0,23" stroke-miterlimit="10"/>
<path fill="#0072c6" d="m26,31h28v28h-28z"/>
<path fill="#fff" d="m41.697,49.874h-3.742c-.011-.524 0-1.209 0-1.323 0-1.181 .286-1.843 .676-2.604 .389-.762 1.17-1.619 2.339-2.572 1.166-.954 1.867-1.576 2.096-1.872 .352-.468 .527-.986 .527-1.55 0-.779-.312-1.444-.933-2.003-.624-.557-1.605-.836-2.66-.836-1.018,0-1.727,.291-2.41,.873-.685,.58-1.156,1.437-1.412,2.628l-3.678-.427c.104-1.705 .828-3.155 2.176-4.346 1.344-1.192 3.137-1.842 5.324-1.842 2.298,0 4.102,.658 5.46,1.862 1.359,1.207 2.04,2.491 2.04,4.09 0,.887-.25,1.846-.749,2.636s-1.565,1.868-3.2,3.229c-.848,.701-1.372,1.271-1.577,1.695-.204,.43-.298,1.196-.276,2.302v.06zm-3.698,6.126v-4h4v4h-4z"/>
</svg>
