<?xml version="1.0" encoding="utf-8"?>
<!-- Generator: Adobe Illustrator 15.0.0, SVG Export Plug-In . SVG Version: 6.00 Build 0)  -->
<!DOCTYPE svg PUBLIC "-//W3C//DTD SVG 1.1//EN" "http://www.w3.org/Graphics/SVG/1.1/DTD/svg11.dtd">
<svg version="1.1" id="Слой_1" xmlns="http://www.w3.org/2000/svg" xmlns:xlink="http://www.w3.org/1999/xlink" x="0px" y="0px"
	 width="64px" height="64px" viewBox="0 0 64 64" enable-background="new 0 0 64 64" xml:space="preserve">
<path fill="none" stroke="#FFFFFF" stroke-width="2" stroke-miterlimit="10" d="M24,58H11V6h42v23"/>
<path fill="#FFFFFF" d="M26,31v28h28V31H26z M41.999,56h-4v-4h4V56z M46.751,42.588c-0.499,0.79-1.565,1.868-3.2,3.229
	c-0.848,0.701-1.371,1.271-1.576,1.695c-0.205,0.43-0.299,1.196-0.277,2.303v0.06h-3.742c-0.012-0.524,0-1.209,0-1.323
	c0-1.181,0.286-1.843,0.676-2.604c0.389-0.762,1.17-1.619,2.34-2.572c1.166-0.954,1.866-1.576,2.096-1.872
	c0.352-0.468,0.526-0.985,0.526-1.55c0-0.779-0.312-1.444-0.933-2.003c-0.624-0.558-1.605-0.836-2.66-0.836
	c-1.018,0-1.727,0.29-2.41,0.872c-0.686,0.58-1.156,1.438-1.412,2.629L32.5,40.188c0.104-1.705,0.828-3.154,2.176-4.346
	C36.02,34.65,37.813,34,40,34c2.298,0,4.102,0.658,5.46,1.861c1.358,1.207,2.04,2.492,2.04,4.091
	C47.5,40.839,47.25,41.798,46.751,42.588z"/>
</svg>
