<svg width="64" xmlns="http://www.w3.org/2000/svg" height="64" viewBox="0 0 64 64" xmlns:xlink="http://www.w3.org/1999/xlink" enable-background="new 0 0 64 64">
<path fill="#505150" d="M56.995,12.003v39.994H7.003V12.003H56.995 M58.998,10H5v44h53.998V10L58.998,10z"/>
<path fill="#edc87e" d="m10,15h44v34h-44z"/>
<path fill="#505150" d="m21,21h22v22h-22z"/>
</svg>
