<svg width="64" xmlns="http://www.w3.org/2000/svg" height="64" viewBox="0 0 64 64" xmlns:xlink="http://www.w3.org/1999/xlink" enable-background="new 0 0 64 64">
<path fill="#505150" d="m49,16v32h-42v-32h42m2-2h-46v36h46v-36z"/>
<path fill="#edc87e" d="m9,18h38v28h-38z"/>
<g fill="#505150">
<path d="m18,22h20v20h-20z"/>
<path d="m25.5,30h33v4h-33z"/>
<path d="m54.999,22h4v20h-4z"/>
</g>
</svg>
