<svg width="64" xmlns="http://www.w3.org/2000/svg" height="64" viewBox="0 0 64 64" xmlns:xlink="http://www.w3.org/1999/xlink" enable-background="new 0 0 64 64">
<g fill="#e78e46">
<path d="m8,10h4v46h-4z"/>
<path d="M56,11.096v25.807c0,0-5.274,3.097-12.001,3.097C32.071,40,28.13,35.872,20,35.872S8,37.936,8,37.936V10.063  C8,10.063,10.085,8,20,8c9.914,0,14.047,6.193,23.999,6.193C50.28,14.193,55.128,11.582,56,11.096z"/>
</g>
</svg>
