<svg width="64" xmlns="http://www.w3.org/2000/svg" height="64" viewBox="0 0 64 64" xmlns:xlink="http://www.w3.org/1999/xlink" enable-background="new 0 0 64 64">
<path fill="#e78e46" d="M46.65,39.068 43.001,30 39.35,39.068 30,39.91 37.091,46.381 34.967,56 43.001,50.901 51.035,56 48.908,46.381 56,39.91z"/>
<path fill="#727272" d="m22.945,37.534 6.786-.612 7.522-.678 2.965-7.364 2.784-6.914 2.782,6.914 2.964,7.364 4.252,.384 0-23.628-42,0 0,29 7,0 0,9 9-9-.008-.773z"/>
</svg>
