<svg width="64" xmlns="http://www.w3.org/2000/svg" height="64" viewBox="0 0 64 64" xmlns:xlink="http://www.w3.org/1999/xlink" enable-background="new 0 0 64 64">
<path fill="#19b762" d="m27,43 0-16 8,0-12.5-15-12.5,15 8,0 0,25 36,0 0-9z"/>
</svg>
