<svg width="64" xmlns="http://www.w3.org/2000/svg" height="64" viewBox="0 0 64 64" xmlns:xlink="http://www.w3.org/1999/xlink" enable-background="new 0 0 64 64">
<g fill="none" stroke="#8959ab" stroke-width="4">
<path d="m17.5,5c0,0-.126,4.322 2.5,7 2.395,2.442 25.995,12 25.995,18.593 0,6.407-6.576,8.701-6.576,8.701"/>
<path d="m46.032,5c0,0 .13,7.08-7.541,11.431"/>
<path d="   M25.341,23.17c0,0-4.729,2.776-5.986,5.033c-1.283,2.302-1.855,5.851,1.096,8.359C23.335,39.018,41,49.5,41,49.5s3,2,5,4   s2,5.5,2,5.5"/>
<path d="m24.582,47.738c0,0-6.829,3.499-6.575,11.262"/>
</g>
<g fill="#8959ab">
<path d="m25,54h14v4h-14z"/>
<path d="m25,5h14v4h-14z"/>
<path d="m26,33h12v3h-12z"/>
<path d="m26,27h12v3h-12z"/>
</g>
</svg>
