<svg width="64" xmlns="http://www.w3.org/2000/svg" height="64" viewBox="0 0 64 64" xmlns:xlink="http://www.w3.org/1999/xlink" enable-background="new 0 0 64 64">
<path fill="#e78e46" d="  M8.123,8h47.754C55.945,8,56,8.055,56,8.123v47.754C56,55.944,55.945,56,55.877,56H8.123C8.055,56,8,55.945,8,55.877V8.123  C8,8.055,8.055,8,8.123,8z"/>
</svg>
