<svg width="64" xmlns="http://www.w3.org/2000/svg" height="64" viewBox="0 0 64 64" xmlns:xlink="http://www.w3.org/1999/xlink" enable-background="new 0 0 64 64">
<path fill="#0072c6" d="M5,15 42.814,15 59,32 42.814,49 5,49z"/>
</svg>
