<svg width="64" xmlns="http://www.w3.org/2000/svg" height="64" viewBox="0 0 64 64" xmlns:xlink="http://www.w3.org/1999/xlink" enable-background="new 0 0 64 64">
<circle fill="#0072c6" cx="32" cy="32" r="24"/>
<g fill="#fff">
<path d="m42.75,20 0-3-9,0 0,3 3,0 0,24-3,0 0,3 9,0 0-3-3,0 0-24z"/>
<path d="m28.836,40.611l-.277-1.909h-.101c-1.033,1.345-2.784,2.298-4.95,2.298-3.369,0-5.258-2.511-5.258-5.128 0-4.348 3.747-6.542 9.931-6.505v-.285c0-1.132-.445-3.006-3.403-3.006-1.648,0-3.366,.533-4.5,1.276l-.825-2.831c1.237-.777 3.403-1.52 6.047-1.52 5.362,0 6.909,3.502 6.909,7.251v6.223c0,1.555 .067,3.078 .241,4.138h-3.814v-.002zm-.552-8.417c-2.989-.072-5.843,.602-5.843,3.219 0,1.696 1.066,2.474 2.407,2.474 1.685,0 2.921-1.132 3.299-2.367 .104-.32 .137-.674 .137-.956v-2.37z"/>
</g>
</svg>
