<?xml version="1.0" encoding="utf-8"?>
<!-- Generator: Adobe Illustrator 15.0.0, SVG Export Plug-In . SVG Version: 6.00 Build 0)  -->
<!DOCTYPE svg PUBLIC "-//W3C//DTD SVG 1.1//EN" "http://www.w3.org/Graphics/SVG/1.1/DTD/svg11.dtd">
<svg version="1.1" id="Слой_1" xmlns="http://www.w3.org/2000/svg" xmlns:xlink="http://www.w3.org/1999/xlink" x="0px" y="0px"
	 width="64px" height="64px" viewBox="0 0 64 64" enable-background="new 0 0 64 64" xml:space="preserve">
<path fill="#0072C6" d="M8,8v48h48V8H8z"/>
<g>
	<path fill="#FFFFFF" d="M35.444,16H48v10.667H35.444V16z"/>
	<path fill="#FFFFFF" d="M48,37.331V48H35.444V37.331H48z"/>
	<path fill="#FFFFFF" d="M16,16h13.389v10.667H16V16z"/>
	<path fill="#FFFFFF" d="M28.555,37.331V48H16V37.331H28.555z"/>
	<path fill="#FFFFFF" d="M26.667,16h10.667v10.667H26.667V16z"/>
	<path fill="#FFFFFF" d="M37.332,35.444V48H26.667V35.444H37.332z"/>
	<path fill="#FFFFFF" d="M26.667,23.888h10.667v13.443H26.667V23.888z"/>
</g>
</svg>
