<svg width="64" xmlns="http://www.w3.org/2000/svg" height="64" viewBox="0 0 64 64" xmlns:xlink="http://www.w3.org/1999/xlink" enable-background="new 0 0 64 64">
<path fill="#0072c6" d="m24,8l12,7-12,7v-14z"/>
<path fill="#76a797" d="m56,38l-13,7v-14l13,7z"/>
<path fill="#edc87e" d="m13,51v-14l12,6-12,8z"/>
<g fill="none" stroke-width="6">
<path stroke="#0072c6" d="m26.01,14.691c0,0-19.141,.462-14.162,18.968"/>
<path stroke="#76a797" d="m48.424,36.735c0,0 9.167-16.657-9.496-21.635"/>
<path stroke="#edc87e" d="m18.03,44.956c0,0 9.974,16.195 23.658,2.67"/>
</g>
</svg>
