<?xml version="1.0" encoding="utf-8"?>
<!-- Generator: Adobe Illustrator 15.0.0, SVG Export Plug-In . SVG Version: 6.00 Build 0)  -->
<!DOCTYPE svg PUBLIC "-//W3C//DTD SVG 1.1//EN" "http://www.w3.org/Graphics/SVG/1.1/DTD/svg11.dtd">
<svg version="1.1" id="Слой_1" xmlns="http://www.w3.org/2000/svg" xmlns:xlink="http://www.w3.org/1999/xlink" x="0px" y="0px"
	 width="64px" height="64px" viewBox="0 0 64 64" enable-background="new 0 0 64 64" xml:space="preserve">
<g>
	<path fill="#E78E46" d="M24,45l-5-5l19-19l5,5L24,45z"/>
	<path fill="#505050" d="M23,46l-5-5l-2,2v5h5L23,46z"/>
	<path fill="#B83B1D" d="M45,24l-5-5l3-3l5,5L45,24z"/>
</g>
<g>
	<path fill="#505050" d="M11,11v6H8V8h9v3H11z"/>
	<path fill="#505050" d="M53,11h-6V8h9v9h-3V11z"/>
	<path fill="#505050" d="M11,53h6v3H8v-9h3V53z"/>
	<path fill="#505050" d="M53,53v-6h3v9h-9v-3H53z"/>
</g>
</svg>
