<?xml version="1.0" encoding="utf-8"?>
<!-- Generator: Adobe Illustrator 15.0.0, SVG Export Plug-In . SVG Version: 6.00 Build 0)  -->
<!DOCTYPE svg PUBLIC "-//W3C//DTD SVG 1.1//EN" "http://www.w3.org/Graphics/SVG/1.1/DTD/svg11.dtd">
<svg width="64" height="64" xmlns="http://www.w3.org/2000/svg">
 <g>
  <title>Layer 1</title>
  <g id="svg_1">
   <path id="svg_2" d="m32,5c-14.913,0 -27,12.087 -27,27c0,14.912 12.087,27 27,27c14.912,0 27,-12.088 27,-27c0,-14.913 -12.088,-27 -27,-27zm0,51.75c-13.669,0 -24.75,-11.08 -24.75,-24.75c0,-13.669 11.081,-24.75 24.75,-24.75c13.67,0 24.75,11.081 24.75,24.75c0,13.67 -11.08,24.75 -24.75,24.75z" fill="#515151"/>
   <path id="svg_3" d="m31,8h2v4h-2v-4l0,0z" fill="#515151"/>
   <path id="svg_4" d="m31,52h2v4h-2v-4l0,0z" fill="#515151"/>
   <path id="svg_5" d="m52,31h4v2h-4v-2l0,0z" fill="#515151"/>
   <path id="svg_6" d="m8,30h4v2h-4v-2l0,0z" fill="#515151"/>
  </g>
  <path id="svg_7" d="m18,18.17212l8.4,19.6l19.6,8.4l-14,-14l-14,-14z" fill="#636363"/>
  <path id="svg_8" d="m46,46l-8.398,-19.602l-19.602,-8.398l14,14l14,14z" fill="#dadada"/>
 </g>
</svg>
