<svg width="64" xmlns="http://www.w3.org/2000/svg" height="64" viewBox="0 0 64 64" xmlns:xlink="http://www.w3.org/1999/xlink" enable-background="new 0 0 64 64">
<path fill="#505050" d="m54,15v16h-28v-16h28m2-2h-32v20h32v-20z"/>
<path fill="#edc87e" d="m8,35h11v-10h-6v-4h-3v4h-2v10z"/>
<g fill="#505050">
<path d="m39,8h17v2h-17z"/>
<path d="m24,8h9v2h-9z"/>
<path d="m8,37h11v2h-11z"/>
<path d="m54,38v16h-28v-16h28m2-2h-32v20h32v-20z"/>
</g>
<path fill="#edc87e" d="m8,25"/>
</svg>
