<svg width="64" xmlns="http://www.w3.org/2000/svg" height="64" viewBox="0 0 64 64" xmlns:xlink="http://www.w3.org/1999/xlink" enable-background="new 0 0 64 64">
<g transform="matrix(1.01621 0 0 1.01621 13.57437 -941.52868)">
<g fill="none" stroke="#505050" stroke-width="4">
<path d="m10.259,947.173v29.521h15.745"/>
<path d="m10.259,957.998h15.745"/>
</g>
<path fill="#edc87e" d="m-3.517,944.952 23.208-13.36 6.699,11.57-23.207,13.36z"/>
<path fill="#e68e97" d="m15.133,961.277 15.597-8.978 4.504,7.776-15.597,8.98z"/>
<path fill="#0072c6" d="m19.68,976.818 15.598-8.98 4.503,7.775-15.599,8.981z"/>
</g>
</svg>
