<svg width="64" xmlns="http://www.w3.org/2000/svg" height="64" viewBox="0 0 64 64" xmlns:xlink="http://www.w3.org/1999/xlink" enable-background="new 0 0 64 64">
<g fill="#19b762">
<path d="M46,12c3.308,0,6,2.692,6,6v34H18c-3.308,0-6-2.692-6-6V12H46z M8,8v38c0,5.5,4.5,10,10,10h38V18   c0-5.5-4.5-10-10-10H8z"/>
<path d="M22,20h5v24h-5V20z"/>
<path d="M36,20h5v24h-5V20z"/>
</g>
</svg>
