<svg width="64" xmlns="http://www.w3.org/2000/svg" height="64" viewBox="0 0 64 64" xmlns:xlink="http://www.w3.org/1999/xlink" enable-background="new 0 0 64 64">
<circle fill="#0153b7" cx="18.5" cy="32" r="8"/>
<path fill="#e78e46" d="M40.002,14L26.5,31.998L40.002,50L53.5,31.998L40.002,14z"/>
</svg>
