<svg width="64" xmlns="http://www.w3.org/2000/svg" height="64" viewBox="0 0 64 64" xmlns:xlink="http://www.w3.org/1999/xlink" enable-background="new 0 0 64 64">
<path fill="#505050" d="M43,22H18V8h25V22z M20,20h21V10H20V20z"/>
<path fill="#0072c6" d="M18,20h25v4H18V20z"/>
<path fill="#505050" d="m19,52 0-13-2,0 0,15 11.487,0 .919-2z"/>
<path fill="#727272" d="m45,15 0,11-29,0 0-11-8,0 0,24 23.267,0-4.685-10 26.418,0 0-14z"/>
<g fill="#0072c6">
<path d="m23,48 7.769,0 .919-2-8.688,0z"/>
<path d="m23,44 9.627,0 0-2-9.627,0z"/>
</g>
<g fill="#00b050">
<path d="M52.916,32 44,32 49.084,43 44,54 52.916,54 58,43z"/>
<path d="M32,32 37.084,43 32,54 40.916,54 46,43 40.916,32z"/>
</g>
</svg>
