<svg width="64" xmlns="http://www.w3.org/2000/svg" height="64" viewBox="0 0 64 64" xmlns:xlink="http://www.w3.org/1999/xlink" enable-background="new 0 0 64 64">
<g fill="#fff">
<path d="m32.243,15.757c3.282,0 6.421,.892 9.17,2.528 7.069-1.142 11.944-3.521 11.944-6.28 0-3.87-9.563-7.006-21.36-7.005-11.798,0-21.361,3.136-21.361,7.005 0,2.809 5.054,5.225 12.333,6.341 2.773-1.675 5.949-2.589 9.272-2.589h.002z"/>
<path d="m26.051,31.989c.36,.036 .729,.067 1.103,.098-.374-.031-.744-.063-1.103-.098z"/>
<path d="m39.014,32.014c0-.002-.002-.004-.002-.006-.66,.067-1.348,.124-2.061,.17 .71-.044 1.403-.098 2.063-.164z"/>
<path d="m20.142,20.46c-7.282-1.659-10.142-4.6-10.142-4.6v10.938c0,0 1.364,1.324 4.78,2.674 .761-3.12 2.348-6.057 4.735-8.443 .201-.201 .418-.378 .627-.569z"/>
<path d="m49.711,29.475c3.098-1.334 4.301-2.643 4.289-2.677v-11.323c0,0-1.914,2.96-9.904,4.76 .295,.26 .594,.514 .875,.794 2.364,2.365 3.97,5.278 4.74,8.446z"/>
<path d="m27.443,32.111c.35,.027 .711,.049 1.074,.071-.363-.022-.724-.045-1.074-.071z"/>
<path d="m30.393,32.27c.508,.016 1.026,.028 1.557,.035-.531-.007-1.049-.019-1.557-.035z"/>
<path d="m34.63,32.283c.761-.02 1.492-.053 2.2-.096-.707,.044-1.441,.076-2.2,.096z"/>
<path d="m25.862,31.969c-.125-.013-.245-.028-.369-.041 0,.001 0,.001 0,.002 .122,.013 .245,.026 .369,.039z"/>
<path d="m28.89,32.205c.358,.019 .726,.034 1.096,.048-.369-.014-.738-.029-1.096-.048z"/>
<path d="m34.314,32.29c-.763,.017-1.547,.025-2.364,.015 .818,.009 1.601,.001 2.364-.015z"/>
<path d="m31.575,34.855c-.175,.002-.345,.002-.518,.002 .173,0 .343,0 .518-.002z"/>
<path d="m29.349,34.848c.175,.004 .349,.008 .527,.01-.178-.004-.352-.006-.527-.01z"/>
<path d="m14.332,32.214c-3.042-1.223-4.332-2.409-4.332-2.409v10.285c0,0 1.134,1.096 3.909,2.311l1.729-1.729c-1.133-2.715-1.549-5.617-1.306-8.458z"/>
<path d="m35.336,34.711c.152-.009 .305-.02 .454-.027-.149,.009-.302,.018-.454,.027z"/>
<path d="m47.268,43.673c4.93-1.573 6.748-3.543 6.732-3.584v-10.343c0,0-.861,1.091-3.842,2.269 .055,.576 .085,1.157 .085,1.742 0,3.58-1.042,6.999-2.975,9.916z"/>
<path d="m26.295,34.715c.056,.004 .115,.008 .172,.012-.057-.004-.115-.008-.172-.012z"/>
<path d="m37.579,34.553c.012-.001 .024-.002 .038-.003-.012,.001-.025,.002-.038,.003z"/>
<path d="m27.776,34.799c.14,.006 .283,.012 .425,.018-.142-.006-.285-.012-.425-.018z"/>
<path d="m10,43.203v3.104l1.86-1.859c-1.284-.716-1.86-1.245-1.86-1.245z"/>
<path d="m25.33,50.361l-6.968,6.969c3.319,.887 7.763,1.596 13.588,1.665 16.825,.198 22.075-5.437 22.05-5.506v-10.343c0,0-1.873,2.367-9.637,3.89-3.317,3.032-7.573,4.71-12.097,4.71-2.388,.001-4.748-.475-6.936-1.385z"/>
<path d="m28.517,32.181c.125,.008 .247,.017 .373,.023-.126-.006-.248-.015-.373-.023z"/>
<path d="m27.154,32.086c.097,.008 .191,.017 .29,.024-.099-.007-.193-.016-.29-.024z"/>
<path d="m29.986,32.253c.137,.005 .268,.013 .407,.017-.138-.005-.27-.012-.407-.017z"/>
<path d="m36.829,32.187c.041-.003 .081-.005 .121-.008-.04,.002-.08,.005-.121,.008z"/>
<path d="m34.314,32.29c.105-.002 .211-.004 .314-.006-.103,.002-.208,.003-.314,.006z"/>
<path d="m25.862,31.969c.063,.006 .125,.014 .189,.021-.064-.008-.125-.015-.189-.021z"/>
<path d="m26.051,31.989c.359,.036 .729,.067 1.103,.098 .097,.008 .191,.017 .29,.024 .35,.027 .711,.049 1.074,.071 .125,.007 .247,.017 .373,.023 .357,.019 .726,.034 1.096,.048 .137,.005 .268,.013 .407,.017 .508,.017 1.026,.028 1.557,.035 .818,.01 1.602,.002 2.365-.015 .104-.002 .211-.004 .313-.006 .759-.02 1.494-.052 2.2-.096 .041-.003 .081-.005 .121-.008 .713-.046 1.4-.103 2.061-.17-.301-1.173-.902-2.284-1.818-3.201-1.322-1.322-3.08-2.05-4.949-2.05-1.87,0-3.628,.728-4.95,2.05-.896,.896-1.491,1.977-1.799,3.12 .124,.013 .243,.028 .369,.041 .062,.005 .123,.012 .187,.019z"/>
<path d="m39.209,34.398c0-.002 0-.002 0-.004-.518,.055-1.041,.108-1.592,.155 .547-.046 1.078-.096 1.592-.151z"/>
<path d="m35.79,34.684c.614-.039 1.214-.082 1.789-.132-.574,.05-1.175,.093-1.789,.132z"/>
<path d="m31.057,34.857c-.4,.004-.795,.004-1.182,0 .387,.004 .782,.002 1.182,0z"/>
<path d="m26.467,34.727c.427,.028 .863,.053 1.309,.072-.446-.02-.883-.044-1.309-.072z"/>
<path d="m33.328,34.811c.693-.025 1.357-.061 2.008-.099-.648,.038-1.315,.072-2.008,.099z"/>
<path d="m28.201,34.814c.376,.015 .759,.025 1.148,.033-.389-.007-.773-.017-1.148-.033z"/>
<path d="m25.307,34.633c0,.001 0,.002 0,.003 .324,.029 .651,.056 .987,.079-.337-.024-.661-.053-.987-.082z"/>
<path d="m31.575,34.855c.572-.008 1.153-.021 1.753-.045-.599,.023-1.181,.038-1.753,.045z"/>
<path d="m37.579,34.553c-.576,.049-1.175,.092-1.789,.131-.151,.01-.302,.02-.454,.028-.65,.038-1.314,.073-2.008,.099-.6,.023-1.181,.037-1.753,.045-.175,.002-.345,.002-.518,.002-.4,.004-.795,.004-1.182,0-.177-.002-.352-.006-.527-.01-.39-.007-.772-.018-1.148-.031-.142-.006-.285-.01-.425-.018-.446-.02-.882-.044-1.309-.072-.057-.004-.115-.008-.172-.012-.336-.023-.663-.051-.987-.079 .187,1.489 .844,2.931 1.985,4.071 1.322,1.322 3.08,2.05 4.95,2.05 1.869,0 3.628-.728 4.949-2.05 1.203-1.202 1.873-2.734 2.017-4.309-.513,.055-1.045,.104-1.592,.151-.011,.002-.024,.003-.037,.004z"/>
<path d="m42.79,23.106c-2.929-2.929-6.769-4.393-10.607-4.393-3.839,0-7.677,1.464-10.607,4.393-4.914,4.914-5.689,12.383-2.358,18.123l-8.852,8.852 5.45,5.449 8.852-8.852c2.324,1.35 4.932,2.024 7.539,2.024 3.831,0 7.659-1.458 10.583-4.384 5.858-5.857 5.858-15.354 0-21.212zm-3.536,17.678c-1.953,1.952-4.512,2.929-7.071,2.929s-5.118-.977-7.071-2.929c-3.905-3.905-3.905-10.237 0-14.142 1.952-1.952 4.512-2.929 7.071-2.929 2.56,0 5.118,.976 7.071,2.929 3.905,3.905 3.905,10.236 0,14.142z"/>
</g>
</svg>
