<svg width="64" xmlns="http://www.w3.org/2000/svg" height="64" viewBox="0 0 64 64" xmlns:xlink="http://www.w3.org/1999/xlink" enable-background="new 0 0 64 64">
<g fill="#1f6d42" transform="translate(0 -924.36218)">
<path d="m34,948.362h6v32h-6v-32z"/>
<path d="m44,940.362h6v40h-6v-40z"/>
<path d="m24,956.362h6v24h-6v-24z"/>
<path d="m14,964.362h6v16h-6v-16z"/>
</g>
<g transform="translate(0 -924.36218)">
<path fill="#0072c6" d="m54,934.362v44h-44v-44h44m2-2h-48v48h48v-48z"/>
</g>
</svg>
