<svg width="64" xmlns="http://www.w3.org/2000/svg" height="64" viewBox="0 0 64 64" xmlns:xlink="http://www.w3.org/1999/xlink" enable-background="new 0 0 64 64">
<path fill="#727373" d="m30,10h4v44h-4z"/>
<path fill="#2172b9" d="m25,45 0-26-14,13z"/>
<path fill="#b93e26" d="m56,46 0,10-10,0 0,4 14,0 0-14z"/>
</svg>
