<svg width="64" xmlns="http://www.w3.org/2000/svg" height="64" viewBox="0 0 64 64" xmlns:xlink="http://www.w3.org/1999/xlink" enable-background="new 0 0 64 64">
<g fill="none" stroke="#505050" stroke-width="6" transform="translate(4.125 -921.06108)">
<path d="m.875,953.061h49"/>
<path d="m30.875,933.061l20,20-20,20"/>
</g>
</svg>
