<svg width="64" xmlns="http://www.w3.org/2000/svg" height="64" viewBox="285.49 1025.915 64 64" xmlns:xlink="http://www.w3.org/1999/xlink" enable-background="new 285.49 1025.915 64 64">
<path fill="#76a797" d="m290.553,1040.915 53.875,0 0,34-53.875,0 0-34z"/>
<path fill="#fff" d="m330.619,1056.372-8.142,0-5.895-6.457-2.072,1.898 4.162,4.559-6.85,0-5.386-5.897-2.075,1.896 5.319,5.823-5.319,5.827 2.075,1.894 6.15-6.733 5.797,0-3.873,4.241 2.072,1.898 5.604-6.139 8.433,0z"/>
</svg>
