<svg width="64" xmlns="http://www.w3.org/2000/svg" height="64" viewBox="0 0 64 64" xmlns:xlink="http://www.w3.org/1999/xlink" enable-background="new 0 0 64 64">
<g fill="#505050">
<path d="M20.333,32L27,38.67L8.667,57L2,50.335L20.333,32z"/>
<path d="m34,14c6.617,0 12,5.383 12,12s-5.383,12-12,12-12-5.383-12-12 5.383-12 12-12m0-6c-9.941,0-18,8.06-18,18 0,9.941 8.059,18 18,18 9.941,0 18-8.059 18-18 0-9.94-8.059-18-18-18z"/>
</g>
<path fill="#fff" d="M55.598,24H30v32h32V30.4L55.598,24z"/>
<path fill="#895ca5" d="M54.398,26H32v28h28V31.6L54.398,26z"/>
<g fill="#fff">
<path d="M57,51H35V41h22V51z"/>
<path d="M55,29H37v8h18V29z"/>
</g>
<g fill="#895ca5">
<path d="m47,27h5v8h-5v-8z"/>
<path d="M37,43h18v2H37V43z"/>
<path d="M37,47h18v2H37V47z"/>
</g>
</svg>
