<svg width="64" xmlns="http://www.w3.org/2000/svg" height="64" viewBox="0 0 64 64" xmlns:xlink="http://www.w3.org/1999/xlink" enable-background="new 0 0 64 64">
<path fill="#40825e" d="m52.799,40.37c-1.086,.652-2.821,1.085-5.21,1.518v-1.084c1.954-1.954 3.039-4.558 3.039-7.379h1.305v-5.425h-3.908v5.425h1.303c0,2.388-.868,4.34-2.17,6.076l-3.473-3.907h-7.38l-3.255,3.691c-1.302-1.519-2.17-3.691-2.17-6.077h1.302v-5.208h-3.906v5.427h1.302c0,2.821 1.085,5.427 3.038,7.379v1.084c-2.17-.433-3.907-.868-5.209-1.518l.651-.433-2.604-4.558-3.473,1.953 2.604,4.558 1.302-.868c1.519,1.084 3.907,1.736 6.728,2.17v2.386c-1.302,1.304-2.387,3.041-2.821,4.991h-1.518v5.429h3.906v-5.21h-.868c.434-1.302 1.085-2.604 1.953-3.691l3.038,3.691h7.38l3.039-3.691c.868,1.084 1.517,2.389 1.954,3.691h-.875v5.21h3.906v-5.21h-1.519c-.433-1.956-1.516-3.691-2.819-4.99v-2.388c2.819-.433 5.208-1.304 6.727-2.171l1.302,.868 2.604-4.556-3.472-1.955-2.386,4.339 .653,.433z"/>
<path fill="none" d="m29.796,50.572h-1.518v5.208h3.906v-4.989h-.868c.325-.976 .772-1.951 1.341-2.836-.583-.039-1.156-.112-1.724-.201-.513,.862-.913,1.811-1.137,2.818z"/>
<path fill="#e78e46" d="m21.456,34.189c-.927-1.869-1.461-3.966-1.461-6.189 0-7.719 6.28-14 14-14 6.407,0 11.81,4.331 13.466,10.216h6.164c-1.775-9.223-9.897-16.216-19.63-16.216-11.028,0-20,8.972-20,20 0,3.785 1.076,7.314 2.91,10.335l-10.909,10.665 7,7 10.392-10.161-5.508-9.639c0,0 3.576-2.011 3.576-2.011z"/>
<path fill="#fff" d="m27.409,40.372c.134,.067 .292,.123 .435,.185-.137-.068-.279-.128-.413-.199l-.022,.014z"/>
</svg>
