<svg width="64" xmlns="http://www.w3.org/2000/svg" height="64" viewBox="0 0 64 64" xmlns:xlink="http://www.w3.org/1999/xlink" enable-background="new 0 0 64 64">
<circle fill="#9cd562" cx="32" cy="32" r="24"/>
<g fill="#fff">
<path d="m27.521,38.001h21v6h-21z"/>
<path d="m18.478,38.001h6v6h-6z"/>
<path d="m27.521,29.001h15v6h-15z"/>
<path d="m18.478,29.001h6v6h-6z"/>
<path d="m27.478,20h12v5.998h-12z"/>
<path d="m18.478,20.002h6v5.998h-6z"/>
</g>
</svg>
