<svg width="64" xmlns="http://www.w3.org/2000/svg" height="64" viewBox="0 0 64 64" xmlns:xlink="http://www.w3.org/1999/xlink" enable-background="new 0 0 64 64">
<path fill="#0072c6" d="M8,16l27-8v48L8,51V16z"/>
<path fill="#fff" stroke="#fff" stroke-width="2" d="m14,37.407l2.32-.589c.934,3.143 2.958,4.714 6.072,4.714 1.627,0 2.853-.386 3.676-1.157 .824-.771 1.236-1.806 1.236-3.102 0-.981-.314-1.769-.942-2.366-.627-.597-1.353-1.008-2.178-1.234l-4.112-1.149c-1.065-.304-1.936-.673-2.614-1.106-.678-.435-1.253-1.103-1.726-2.003-.472-.901-.708-1.932-.708-3.093 0-1.927 .648-3.461 1.943-4.606 1.297-1.144 2.959-1.716 4.988-1.716 3.737,0 6.193,1.899 7.367,5.696l-2.335,.777c-.271-1.352-.909-2.375-1.913-3.068-1.004-.693-2.075-1.039-3.209-1.039-1.125,0-2.127,.333-3.005,.998-.88,.664-1.319,1.605-1.319,2.822 0,1.702 1.116,2.851 3.346,3.448l3.842,1.031c3.514,.946 5.271,3.071 5.271,6.371 0,1.995-.661,3.654-1.98,4.978-1.323,1.324-3.183,1.986-5.582,1.986-4.259,0-7.072-2.197-8.438-6.593z"/>
<g fill="#0072c6">
<path d="m40.543,11c-1.964,0-2.49,.5-3.543,1v10c.902,.446 1.579,1 3.543,1 3.562,0 6.457-2.693 6.457-6.008 0-3.316-2.895-5.992-6.457-5.992z"/>
<path d="m56,32c0,3.314-2.688,6-6,6s-6-2.686-6-6c0-3.313 2.688-6 6-6s6,2.687 6,6z"/>
</g>
<path fill="none" stroke="#0072c6" stroke-width="3" d="m38.229,16.334c0,0 12.211,5.302 12.828,15.575 .617,10.274-11.595,15.616-11.595,15.616"/>
<path fill="#0072c6" d="m40.543,41c-1.964,0-2.49,.5-3.543,1v10c.902,.445 1.579,1 3.543,1 3.562,0 6.457-2.693 6.457-6.008 0-3.316-2.895-5.992-6.457-5.992z"/>
</svg>
