<svg width="64" xmlns="http://www.w3.org/2000/svg" height="64" viewBox="0 0 64 64" xmlns:xlink="http://www.w3.org/1999/xlink" enable-background="new 0 0 64 64">
<path fill="#505050" d="m52,12v40h-40v-40h40m4-4h-48v48h48v-48z"/>
</svg>
