<svg width="64" xmlns="http://www.w3.org/2000/svg" height="64" viewBox="0 0 64 64" xmlns:xlink="http://www.w3.org/1999/xlink" enable-background="new 0 0 64 64">
<path fill="#505050" d="M56,8.076v5.848C56,13.966,55.962,14,55.916,14H8.085C8.038,14,8,13.966,8,13.924V8.076  C8,8.034,8.038,8,8.085,8h47.831C55.962,8,56,8.034,56,8.076z"/>
<path fill="#b83b1d" d="M56,18v28L35,32L56,18z"/>
<g fill="#505050">
<path d="m32,22.04v5.921c0,.022-.019,.039-.042,.039h-23.916c-.022,0-.042-.017-.042-.039v-5.921c0-.022 .02-.04 .042-.04h23.916c.023,0 .042,.018 .042,.04z"/>
<path d="m56,50.076v5.848c0,.042-.038,.076-.084,.076h-47.831c-.047,0-.085-.034-.085-.076v-5.848c0-.041 .038-.076 .085-.076h47.831c.046,0 .084,.035 .084,.076z"/>
<path d="m32,36.04v5.92c0,.022-.019,.04-.042,.04h-23.915c-.023,0-.043-.018-.043-.04v-5.92c0-.022 .02-.04 .043-.04h23.915c.023,0 .042,.018 .042,.04z"/>
</g>
</svg>
