<?xml version="1.0" encoding="utf-8"?>
<!-- Generator: Adobe Illustrator 15.0.0, SVG Export Plug-In . SVG Version: 6.00 Build 0)  -->
<!DOCTYPE svg PUBLIC "-//W3C//DTD SVG 1.1//EN" "http://www.w3.org/Graphics/SVG/1.1/DTD/svg11.dtd">
<svg version="1.1" id="id1" xmlns="http://www.w3.org/2000/svg" xmlns:xlink="http://www.w3.org/1999/xlink" x="0px" y="0px"
	 width="64px" height="64px" viewBox="0 0 64 64" enable-background="new 0 0 64 64" xml:space="preserve">
<path fill="none" stroke="#505050" stroke-width="2" stroke-miterlimit="10" d="M50,33V6H11v49h17"/>
<path fill="#EDC87E" stroke="#EDC87E" d="M33.07,57.999L30,54.93l6.138-6.139l3.069,3.07L33.07,57.999z"/>
<circle fill="none" stroke="#ECC77E" stroke-width="4" cx="43.813" cy="44.186" r="8.186"/>
</svg>
