<svg width="64" xmlns="http://www.w3.org/2000/svg" height="64" viewBox="0 0 64 64" xmlns:xlink="http://www.w3.org/1999/xlink" enable-background="new 0 0 64 64">
<g fill="#2072b8">
<path d="m14.113,30h-6.113c0-10.076 8.211-18.244 18.34-18.244 .025,0 .051,.002 .076,.002v6.083c-.025,0-.051-.004-.076-.004-6.753,0-12.227,5.446-12.227,12.163z"/>
<path d="M22.625,22.488L34,15.512L22.625,8V22.488z"/>
<path d="m49.887,34h6.113c0,10.076-8.211,18.244-18.34,18.244-.025,0-.051-.002-.076-.002v-6.083c.025,0 .051,.004 .076,.004 6.754,0 12.227-5.446 12.227-12.163z"/>
<path d="M41.375,41.512L30,48.488L41.375,56V41.512z"/>
</g>
<g fill="#505050">
<path d="m18,25h22v14h-22z"/>
<path d="m38,35.2 8,4.8 0-16-8,5.6z"/>
</g>
</svg>
