<svg width="64" xmlns="http://www.w3.org/2000/svg" height="64" viewBox="-0.5 0.5 64 64" xmlns:xlink="http://www.w3.org/1999/xlink" enable-background="new -0.5 0.5 64 64">
<path fill="#fff" d="m24.5,26.5 21.898,0 0-7.885-12.285-12.285-23.511,0 0,44.319 13.898,0z"/>
<g fill="#515151">
<path d="M34.5,8.908l8.636,8.592H34.5V8.908 M33.887,5.5H32.5v14h14v-1.222L33.887,5.5z"/>
<path d="m24.5,49.798-13.318,0 0-42.594 21.863-0 11.773,11.926 0,7.37 1.682,0 0-8.222-12.613-12.778-24.387,0 0,46 15,0z"/>
</g>
<path fill="#b83b1d" d="M15.204,19.688l4.091,4.122l8.501-8.561L30,17.47L19.295,28.25L13,21.908L15.204,19.688z"/>
<path fill="#c2d5f2" d="m28.5,30.986h24v23.673l-4,3.946-4-3.946-4,3.946-4-3.946-4,3.946-4-3.946v-23.673z"/>
<g fill="#19478a">
<path d="m48.5,60l-4-3.945-4,3.945-4-3.945-4,3.945-5-4.932v-25.568h26v25.568l-5,4.932zm-4-6.735l4,3.945 3-2.959v-22.751h-22v22.751l3,2.959 4-3.945 4,3.945 4-3.945z"/>
<path d="m32.5,35.5h8v2h-8z"/>
<path d="m32.5,41.5h16v2h-16z"/>
<path d="m32.5,47.5h16v2h-16z"/>
</g>
</svg>
