<?xml version="1.0" encoding="utf-8"?>
<!-- Generator: Adobe Illustrator 15.0.0, SVG Export Plug-In . SVG Version: 6.00 Build 0)  -->
<!DOCTYPE svg PUBLIC "-//W3C//DTD SVG 1.1//EN" "http://www.w3.org/Graphics/SVG/1.1/DTD/svg11.dtd">
<svg version="1.1" id="Слой_1" xmlns="http://www.w3.org/2000/svg" xmlns:xlink="http://www.w3.org/1999/xlink" x="0px" y="0px"
	 width="64px" height="64px" viewBox="0 0 64 64" enable-background="new 0 0 64 64" xml:space="preserve">
<g>
	<g>
		<path fill="#505050" d="M33,11.441l21,7v24.705l-21-7.621V11.441 M32,9l-1,0.5v28l1-0.21L56,46V17L32,9L32,9z"/>
	</g>
</g>
<g>
	<g>
		<path fill="#505050" d="M31,11.441v23.798l-21,7.875V18.441L31,11.441 M32,9L8,17v29l24-9l1-0.5v-27L32,9L32,9z"/>
	</g>
</g>
<g>
	<g>
		<path fill="#505050" d="M32,37.068L54.485,45.5L32,53.932L9.515,45.5L32,37.068 M32,36L8,45l0,1l24,9l24-9v-1L32,36L32,36z"/>
	</g>
</g>
<g>
	<g>
		<path fill="#505050" d="M54,19.667v24.948l-21,7.875V25.792L54,19.667 M56,17l-24,7l-1,0.5v30l1,0.5l24-9V17L56,17z"/>
	</g>
</g>
<g>
	<g>
		<path fill="#505050" d="M10,19.667l21,6.125v26.698l-21-7.875V19.667 M8,17v29l24,9l1-0.5v-30L32,24L8,17L8,17z"/>
	</g>
</g>
<g>
	<path fill="#505050" d="M32,11.108l20.493,6.831L32,23.917l-20.494-5.977L32,11.108 M32,9L8,17v2l24,7l24-7v-2L32,9L32,9z"/>
</g>
</svg>
