<svg width="64" xmlns="http://www.w3.org/2000/svg" height="64" viewBox="0 0 64 64" xmlns:xlink="http://www.w3.org/1999/xlink" enable-background="new 0 0 64 64">
<path fill="#505050" d="M46.117,17.882v28.235H17.882V17.882H46.117 M48,16H16v32h32V16z"/>
<path fill="#fff" d="m9,9h16v16h-16z"/>
<path fill="#1f6d42" d="m24,10v14h-14v-14h14m1.954-2h-17.909c-.024,0-.045,.021-.045,.045v17.909c0,.025 .021,.046 .045,.046h17.909c.025,0 .046-.021 .046-.046v-17.909c0-.024-.021-.045-.046-.045z"/>
<path fill="#fff" d="m39,9h16v16h-16z"/>
<path fill="#b83b1d" d="m54,10v14h-14v-14h14m1.954-2h-17.908c-.025,0-.046,.021-.046,.045v17.909c0,.025 .021,.046 .046,.046h17.908c.025,0 .046-.021 .046-.046v-17.909c0-.024-.021-.045-.046-.045z"/>
<path fill="#fff" d="m9,39h16v16h-16z"/>
<path fill="#e78e46" d="m24,40v14h-14v-14h14m1.954-2h-17.909c-.024,0-.045,.021-.045,.046v17.908c0,.025 .021,.046 .045,.046h17.909c.025,0 .046-.021 .046-.046v-17.908c0-.025-.021-.046-.046-.046z"/>
<path fill="#fff" d="m39,39h16v16h-16z"/>
<path fill="#0072c6" d="m54,40v14h-14v-14h14m1.954-2h-17.908c-.025,0-.046,.021-.046,.046v17.908c0,.025 .021,.046 .046,.046h17.908c.025,0 .046-.021 .046-.046v-17.908c0-.025-.021-.046-.046-.046z"/>
</svg>
