<?xml version="1.0" encoding="utf-8"?>
<svg xmlns="http://www.w3.org/2000/svg" height="256" width="256" viewBox="0 0 256 256">
  <g>
    <path id="path1" transform="rotate(0,128,128) translate(15.2560272216797,0) scale(8,8)  " fill="#004377" d="M13.971392,23.222992C12.750374,23.835999 11.526366,24.376984 10.330374,24.823975 11.198361,28.269989 12.55738,30.5 14.092364,30.5 15.594389,30.5 16.932412,28.368988 17.799422,25.050995 16.541417,24.542999 15.252407,23.921997 13.971392,23.222992z M18.604421,20.53299C18.198413,20.802979 17.791427,21.061981 17.381391,21.315979 16.790382,21.681976 16.182407,22.03299 15.571379,22.372986 16.453405,22.823975 17.313396,23.222992 18.139392,23.562988 18.331409,22.616974 18.487416,21.60498 18.604421,20.53299z M9.5763398,20.47699C9.6823588,21.485992 9.8283559,22.442993 10.002368,23.34198 10.776361,23.046997 11.576354,22.70697 12.401373,22.317993 11.799378,21.95697 11.20538,21.587982 10.627373,21.200989 10.273366,20.96698 9.9243651,20.722992 9.5763398,20.47699z M22.995444,17.190979C22.127458,17.952972 21.190438,18.696991 20.209415,19.409973 20.084413,21.036987 19.873412,22.626984 19.565427,24.103973 22.811423,25.220978 25.327493,25.290985 26.159471,24.042999 27.071464,22.673981 25.749494,20.050995 22.995444,17.190979z M5.156324,16.886993C2.3052898,19.651978 0.89426867,22.228973 1.7603031,23.626984 2.5682922,24.93399 5.1803113,24.915985 8.5683366,23.843994 8.2813474,22.398987 8.0803567,20.85498 7.965366,19.278992 6.9753071,18.509979 6.0253492,17.70697 5.156324,16.886993z M20.323428,14.724976C20.334415,15.149994 20.34241,15.575989 20.34241,16 20.34241,16.481995 20.334415,16.968994 20.319461,17.452972 20.885444,17.013977 21.416453,16.571991 21.916457,16.132996 21.418468,15.663971 20.889411,15.194977 20.323428,14.724976z M7.8653284,14.548981C7.3033124,14.987976 6.7703496,15.429993 6.2683316,15.868988 6.7683354,16.335999 7.297331,16.806976 7.8613611,17.274994 7.8503138,16.849976 7.8423182,16.423981 7.8423182,16 7.8423182,15.517975 7.8503138,15.03299 7.8653284,14.548981z M14.092364,13.034973C15.731415,13.034973 17.057412,14.360992 17.057412,16 17.057412,17.638977 15.731415,18.964996 14.092364,18.964996 12.455389,18.964996 11.127377,17.638977 11.127377,16 11.127377,14.360992 12.455389,13.034973 14.092364,13.034973z M14.18636,10.47699C13.33241,10.927979 12.465399,11.421997 11.596375,11.960999 10.838373,12.429993 10.115345,12.909973 9.4243613,13.39798 9.373335,14.243988 9.3423291,15.110992 9.3423291,16 9.3423291,16.855988 9.3713819,17.686981 9.4183799,18.501984 10.070362,18.991974 10.748345,19.477997 11.459349,19.952972 12.311345,20.520996 13.160351,21.044983 13.998369,21.52298 14.854394,21.071991 15.721404,20.579987 16.592383,20.040985 17.350385,19.571991 18.069444,19.09198 18.762443,18.602997 18.813407,17.757996 18.842399,16.890991 18.842399,16 18.842399,15.144989 18.815421,14.312988 18.768424,13.497986 18.115405,13.007996 17.440412,12.52298 16.729407,12.048981 15.877412,11.47998 15.026392,10.95697 14.18636,10.47699z M18.184436,8.6599731C17.412397,8.9549866 16.608436,9.2949829 15.787384,9.6819763 16.385411,10.044983 16.981423,10.413971 17.561383,10.800995 17.9124,11.034973 18.262439,11.276978 18.608449,11.52298 18.502431,10.513977 18.358447,9.5589905 18.184436,8.6599731z M10.045337,8.4389954C9.8543569,9.3829956 9.6973735,10.396973 9.5823823,11.468994 9.9863769,11.198975 10.397329,10.937988 10.807366,10.68399 11.397337,10.317993 12.004397,9.9689941 12.615363,9.6289978 11.733399,9.1759949 10.873346,8.7789917 10.045337,8.4389954z M23.76547,7.3729858C22.623433,7.3849792 21.205453,7.6559753 19.615415,8.1579895 19.905456,9.6029968 20.104432,11.144989 20.221439,12.720978 21.211436,13.48999 22.15944,14.294983 23.03048,15.112976 25.882491,12.349976 27.292474,9.7729797 26.424487,8.375 25.996505,7.6809998 25.058448,7.3599854 23.76547,7.3729858z M4.4173051,7.039978C3.2783195,7.0389709 2.4412771,7.3339844 2.0253197,7.9589844 1.1152786,9.3279724 2.4352957,11.950989 5.1912976,14.811981 6.0563551,14.048981 6.9983178,13.304993 7.9753147,12.59198 8.1003152,10.964996 8.3133298,9.375 8.619362,7.8969727 6.9963647,7.3379822 5.5563513,7.0409851 4.4173051,7.039978z M14.092364,1.5C12.592353,1.5 11.256345,3.6329956 10.385367,6.9509888 11.643372,7.4589844 12.934397,8.0799866 14.215412,8.7789917 15.436368,8.1659851 16.6594,7.625 17.858445,7.1779785 16.987405,3.7319946 15.62741,1.5 14.092364,1.5z M14.092364,0C16.592383,0 18.293445,2.8179932 19.284419,6.6859741 23.096459,5.493988 26.385486,5.4589844 27.702512,7.5839844 29.116523,9.8729858 27.282464,13.089996 24.104463,16.171997 27.174493,19.356995 28.89948,22.636993 27.40948,24.875 26.051498,26.90799 22.882468,26.817993 19.219417,25.577972 18.221423,29.311981 16.535375,32 14.092364,32 11.592345,32 9.8913442,29.18399 8.9003707,25.313995 5.0903445,26.507996 1.7993047,26.542999 0.48429254,24.417999 -0.93173357,22.128998 0.90427849,18.911987 4.0842949,15.829987 1.0123116,12.642975 -0.71273782,9.3649902 0.77927736,7.1269836 2.1353057,5.0939941 5.3032976,5.1839905 8.9673263,6.4239807 9.9653808,2.6889954 11.648377,0 14.092364,0z" />
  </g>
</svg>

