<?xml version="1.0" encoding="utf-8"?>
<svg xmlns="http://www.w3.org/2000/svg" height="256" width="256" viewBox="0 0 256 256">
  <g>
    <path id="path1" transform="rotate(0,128,128) translate(6.80000305175781,0) scale(8,8)  " fill="#004377" d="M30.299999,0L29.700008,2.7000046C29.700008,2.8000031,29.700008,2.9000015,29.600002,3.0999985L29.600002,3.2000046C29.500012,3.4000015,29.299999,3.7000046,29.000012,4L21.700007,11.800003 25.900005,29 23.1,32 16.1,17.599998 10.6,23.5 11.1,28 9.0000011,30.300003 6.5000006,25.099998 1.7000046,22.400002 3.9000021,20.099998 8.2000056,20.700005 13.700006,14.800003 0,7.2000046 2.7000047,4.3000031 19.1,8.9000015 26.299999,1.2000046C26.600002,0.90000153,26.900005,0.70000458,27.200008,0.59999847L27.299999,0.59999847 27.600002,0.59999847z" />
  </g>
</svg>

